<?xml version="1.0" encoding="UTF-8" standalone="no"?>
<!DOCTYPE svg PUBLIC "-//W3C//DTD SVG 1.1//EN" "http://www.w3.org/Graphics/SVG/1.1/DTD/svg11.dtd">
<svg width="100%" height="100%" viewBox="0 0 189 217" version="1.1" xmlns="http://www.w3.org/2000/svg" xmlns:xlink="http://www.w3.org/1999/xlink" xml:space="preserve" xmlns:serif="http://www.serif.com/" style="fill-rule:evenodd;clip-rule:evenodd;stroke-linejoin:round;stroke-miterlimit:2;">
    <g id="g5171" transform="matrix(1,0,0,1,-622.977,-86.409)">
        <path id="path5145" d="M781.141,153.608L788.704,165.733L776.866,158.405L766.281,139.926L757.6,124.18L740.1,117.776L723.1,119.943L719.268,114.178C718.551,114.161 717.832,114.151 717.111,114.151C665.123,114.151 622.977,156.297 622.977,208.285C622.977,233.187 632.651,255.826 648.44,272.662L663.095,246.665L655.429,279.394C671.95,293.737 693.516,302.418 717.111,302.418C769.099,302.418 811.245,260.272 811.245,208.284C811.245,188.841 805.349,170.775 795.249,155.776L781.141,153.608Z" style="fill:white;fill-rule:nonzero;"/>
        <g id="g5167">
            <path id="path5147" d="M774.555,151.104L809.932,152.839L777.588,142.819L808.59,134.379L776.293,132.414L797.035,114.985L764.955,120.331L770.656,91.354L749.883,115.023L745.668,86.409L737.313,113.277L724.418,92.997L727.715,114.759L702.832,103.987L711.139,120.736L706.86,120.837C706.804,120.836 706.748,120.831 706.692,120.831C706.504,120.831 706.321,120.85 706.134,120.853L690.19,121.227L695.061,123.885C694.061,124.448 693.088,125.073 692.161,125.784C690.515,127.055 689.028,128.543 687.723,130.232C686.68,131.596 685.793,133.061 685.073,134.606C681.161,136.414 677.6,138.43 674.462,140.62C670.175,143.613 666.61,146.988 663.866,150.654C663.802,150.736 663.739,150.819 663.68,150.903C660.225,155.601 658.157,160.684 657.53,166.009C655.237,185.449 661.505,204.771 668.737,215.296C672.243,220.4 671.364,228.616 670.729,231.357C670.682,231.541 670.643,231.743 670.596,231.998L669.53,238.335C667.583,240.113 666.305,241.648 665.635,242.521C665.217,243.075 664.979,243.432 664.908,243.545C664.394,244.326 663.994,245.217 663.742,246.161L656.744,272.927C655.765,274.987 655.273,277.078 655.277,279.159C655.175,280.563 655.404,281.958 655.947,283.255C658.994,292.371 671.593,297.588 690.642,297.59L690.644,297.59C696.726,297.59 703.097,297.031 709.576,295.93C728.17,292.768 746.015,284.873 752.971,276.729C753.057,276.63 753.141,276.528 753.219,276.421C756.5,272.019 756.127,266.52 755.887,264.686L754.774,238.352C755.372,238.062 756.098,237.736 756.983,237.373C762.012,235.315 769.497,230.085 774.872,223.046C781.397,214.514 783.372,205.483 780.585,196.928C779.413,193.328 778.771,189.314 778.151,185.431C777.891,183.802 777.579,181.855 777.196,179.915C778.565,174.054 778.708,166.267 776.866,158.405L783.886,161.304L774.555,151.104Z" style="fill:white;fill-rule:nonzero;"/>
            <path id="path5151" d="M774.912,198.775C773.596,194.738 772.916,190.484 772.26,186.373C771.905,184.152 771.543,181.917 771.071,179.772C773.247,172.169 772.899,159.645 766.983,149.091C765.303,146.095 763.266,143.456 760.922,141.189C760.906,137.583 759.746,133.979 757.438,130.968C751.766,123.582 741.145,122.19 733.752,127.858C732.57,128.767 731.512,129.828 730.609,131.003C730.576,131.048 730.548,131.094 730.517,131.138C726.845,131.109 722.988,131.299 719.052,131.715C716.323,129.128 712.872,127.455 709.075,126.955C704.321,126.324 699.606,127.593 695.802,130.51C694.546,131.48 693.423,132.612 692.464,133.853C691.235,135.463 690.316,137.23 689.702,139.08C685.413,140.907 681.407,143.049 677.874,145.517C669.368,151.45 664.386,158.777 663.454,166.712C661.341,184.612 667.056,202.317 673.653,211.919C679.471,220.388 676.553,232.645 676.526,232.762C676.506,232.835 676.491,232.913 676.477,232.991L675.053,241.451C672.516,243.508 670.985,245.347 670.387,246.129C670.063,246.557 669.908,246.799 669.908,246.799C669.732,247.057 669.592,247.372 669.512,247.673L662.356,275.038C661.583,276.501 661.194,277.965 661.247,279.399C661.165,280.003 661.268,280.601 661.53,281.127C664.196,290.096 684.819,294.091 708.575,290.05C726.147,287.063 742.552,279.742 748.436,272.859C750.698,269.823 749.936,265.243 749.936,265.243L748.663,235.082C749.417,234.476 751.14,233.32 754.722,231.856C758.863,230.159 765.423,225.589 770.134,219.425C774.582,213.603 777.381,206.353 774.912,198.775ZM710.744,254.425C710.289,254.521 703.408,256.003 696.021,258.93C686.171,262.829 685.932,260.159 686.009,259.491L688.786,243.812L688.985,242.688C689.389,241.261 690.649,238.727 694.532,236.524C695.518,236.017 696.577,235.518 697.71,235.045L697.718,235.043C707.368,231.02 722.366,228.747 742.788,236.96L743.561,259.808C736.66,255.897 725.285,253.002 710.744,254.425Z" style="fill:rgb(22,22,26);fill-rule:nonzero;"/>
            <path id="path5149" d="M769.857,204.047C769.852,203.919 769.845,203.791 769.837,203.664C769.822,203.45 769.802,203.236 769.776,203.022C769.761,202.896 769.747,202.769 769.729,202.643C769.694,202.414 769.65,202.185 769.602,201.956C769.581,201.847 769.562,201.738 769.536,201.63C769.458,201.293 769.366,200.956 769.257,200.619C767.792,196.133 767.044,191.448 766.384,187.308C766.298,186.771 766.213,186.251 766.128,185.741C766.094,185.53 766.059,185.329 766.024,185.122C765.974,184.83 765.924,184.539 765.876,184.256C765.831,183.998 765.785,183.747 765.739,183.496C765.701,183.282 765.662,183.071 765.623,182.863C765.57,182.585 765.518,182.311 765.464,182.043C765.433,181.884 765.4,181.73 765.368,181.573C765.306,181.28 765.245,180.989 765.182,180.709C765.161,180.613 765.138,180.521 765.116,180.427C764.782,178.98 764.411,177.698 763.964,176.593C763.958,176.581 763.954,176.569 763.949,176.557C763.838,176.285 763.721,176.025 763.601,175.775C763.588,175.75 763.577,175.724 763.564,175.699C763.442,175.449 763.315,175.209 763.181,174.981C763.174,174.969 763.167,174.959 763.16,174.947C762.451,173.746 761.576,172.845 760.449,172.253L760.45,172.253C760.448,172.252 760.446,172.251 760.444,172.25C760.135,172.088 759.81,171.945 759.463,171.83C759.454,171.827 759.446,171.823 759.438,171.82L759.437,171.82C759.09,171.707 758.729,171.609 758.34,171.542C758.252,171.526 758.164,171.519 758.076,171.505L758.072,171.542C758.072,171.542 749.328,170.812 746.904,176.963C744.482,183.118 747.525,187.403 750.695,194.241C753.863,201.078 748.832,203.473 748.832,203.473L748.824,203.455C748.733,203.5 748.633,203.527 748.537,203.563C748.53,203.565 748.524,203.569 748.517,203.572C748.51,203.575 748.504,203.577 748.497,203.579C748.494,203.58 748.491,203.58 748.487,203.581C748.323,203.64 748.153,203.682 747.975,203.71C747.973,203.711 747.971,203.712 747.971,203.712C747.867,203.729 747.768,203.754 747.662,203.76C747.662,203.76 747.592,203.759 747.469,203.752C747.309,203.749 747.151,203.742 746.996,203.718C745.81,203.612 743.16,203.258 739.961,202.07C735.613,200.456 731.555,201.45 730.256,201.852L730.258,201.846C728.873,202.284 727.518,202.69 726.192,203.068C722.299,204.529 721.7,205.799 721.7,205.799C721.7,205.799 717.468,211.764 714.981,209.776C714.82,209.647 714.627,209.52 714.42,209.396C714.385,209.375 714.353,209.353 714.316,209.333C714.106,209.211 713.878,209.092 713.632,208.976C713.603,208.962 713.573,208.949 713.544,208.934C713.004,208.683 712.396,208.443 711.749,208.218L709.839,207.999L711.751,208.218C710.837,207.898 709.853,207.609 708.907,207.356C708.907,207.356 708.903,207.356 708.901,207.355C708.432,207.23 707.972,207.115 707.535,207.008C707.529,207.007 707.523,207.006 707.518,207.004C707.08,206.899 706.664,206.803 706.284,206.718C706.182,206.721 706.091,206.725 705.989,206.728C705.589,206.745 705.194,206.752 704.801,206.761C693.836,207.253 690.94,211.875 690.184,214.562C689.188,220.49 689.106,231.39 703.286,227.483L703.286,227.484C709.243,225.913 714.011,225.649 714.815,225.614C714.831,225.614 714.843,225.613 714.856,225.613C714.88,225.612 714.895,225.611 714.909,225.61C714.932,225.61 714.948,225.609 714.948,225.609C715.761,225.609 716.56,225.627 717.354,225.653C717.594,225.661 717.831,225.673 718.07,225.683C718.637,225.707 719.201,225.737 719.758,225.774C720.001,225.79 720.244,225.805 720.487,225.824C721.104,225.871 721.715,225.924 722.317,225.983C722.462,225.998 722.608,226.009 722.752,226.024C723.491,226.101 724.217,226.188 724.931,226.283C724.975,226.289 725.021,226.293 725.065,226.299C726.283,226.449 726.197,224.847 726.197,224.847L726.205,224.856C726.197,224.55 726.195,224.235 726.211,223.885C726.397,219.906 728.274,223.078 728.274,223.078L730.7,227.255C731.295,227.377 731.868,227.503 732.432,227.631C732.459,227.638 732.489,227.644 732.516,227.65C732.551,227.658 732.583,227.666 732.618,227.674C734.264,228.051 735.774,228.446 737.126,228.836C737.192,228.855 737.261,228.874 737.325,228.893C737.344,228.898 737.36,228.904 737.38,228.91C737.591,228.971 737.794,229.031 737.997,229.093C738.03,229.103 738.064,229.113 738.097,229.122C738.128,229.131 738.158,229.141 738.188,229.15C738.734,229.314 739.249,229.476 739.731,229.633C739.738,229.635 739.745,229.637 739.751,229.639C739.793,229.653 739.833,229.666 739.875,229.679C740.135,229.765 740.385,229.848 740.625,229.929C740.692,229.952 740.765,229.976 740.83,229.998C740.853,230.006 740.873,230.013 740.895,230.02C741.299,230.16 741.669,230.291 742.01,230.415C742.038,230.425 742.072,230.436 742.099,230.446C742.136,230.46 742.169,230.472 742.205,230.485C742.544,230.61 742.845,230.723 743.112,230.827C743.172,230.849 743.237,230.874 743.292,230.895C743.295,230.896 743.298,230.897 743.301,230.899C743.614,231.021 743.874,231.126 744.072,231.207C745.173,230.112 747.207,228.66 750.948,227C751.43,226.786 751.933,226.57 752.474,226.349C752.74,226.24 753.026,226.107 753.321,225.965C753.377,225.938 753.432,225.91 753.488,225.883C753.491,225.881 753.494,225.88 753.496,225.879C754.128,225.566 754.815,225.177 755.542,224.726C755.559,224.715 755.576,224.705 755.594,224.695C755.598,224.692 755.602,224.689 755.606,224.686C756.032,224.419 756.469,224.131 756.916,223.823C756.917,223.822 756.919,223.821 756.92,223.82C757.997,223.074 759.124,222.205 760.245,221.236C760.306,221.183 760.365,221.132 760.426,221.08C760.596,220.931 760.767,220.779 760.936,220.625C761.02,220.55 761.103,220.474 761.187,220.396C761.344,220.251 761.501,220.105 761.659,219.956C761.753,219.867 761.846,219.775 761.939,219.685C762.088,219.54 762.238,219.395 762.385,219.247C762.488,219.143 762.589,219.039 762.691,218.934C762.83,218.791 762.969,218.651 763.106,218.506C763.331,218.269 763.552,218.027 763.771,217.783C763.875,217.667 763.976,217.548 764.079,217.429C764.211,217.279 764.342,217.128 764.471,216.975C764.574,216.854 764.673,216.73 764.774,216.607C764.901,216.453 765.027,216.296 765.151,216.139C765.247,216.017 765.34,215.894 765.434,215.771C765.56,215.606 765.684,215.44 765.807,215.272C765.893,215.154 765.98,215.034 766.065,214.914C766.196,214.73 766.322,214.545 766.447,214.358C766.518,214.252 766.592,214.146 766.661,214.039C766.819,213.797 766.971,213.553 767.119,213.308C767.152,213.253 767.187,213.2 767.221,213.144C767.401,212.841 767.574,212.535 767.739,212.226C767.781,212.149 767.818,212.07 767.859,211.993C767.979,211.761 768.097,211.528 768.209,211.294C768.26,211.187 768.308,211.078 768.356,210.971C768.451,210.761 768.544,210.552 768.63,210.34C768.678,210.224 768.724,210.109 768.77,209.991C768.851,209.782 768.928,209.573 769.001,209.362C769.041,209.247 769.081,209.132 769.119,209.016C769.192,208.791 769.258,208.565 769.321,208.338C769.348,208.238 769.38,208.138 769.405,208.036C769.485,207.73 769.554,207.423 769.614,207.114C769.618,207.093 769.624,207.073 769.628,207.052C769.691,206.72 769.74,206.388 769.779,206.054C769.79,205.96 769.795,205.866 769.803,205.773C769.826,205.535 769.846,205.295 769.856,205.055C769.861,204.935 769.862,204.816 769.864,204.696C769.866,204.481 769.865,204.264 769.857,204.047Z" style="fill:rgb(219,46,46);fill-rule:nonzero;"/>
            <path id="path5153" d="M761.791,152.001C761.055,150.688 760.244,149.464 759.367,148.325C758.855,149.435 758.23,150.507 757.467,151.506C756.567,152.683 755.506,153.741 754.321,154.656C750.741,157.398 746.311,158.586 741.835,157.999C737.362,157.408 733.39,155.118 730.64,151.538C729.917,150.598 729.322,149.596 728.824,148.557L728.814,148.564L727.861,146.783L726.265,144.946C726.173,144.895 726.087,144.861 726.003,144.838C725.993,144.835 725.982,144.832 725.97,144.831C725.808,144.791 725.661,144.8 725.531,144.85C725.521,144.853 725.515,144.854 725.506,144.86C725.442,144.884 725.379,144.92 725.32,144.964C725.318,144.969 725.316,144.97 725.314,144.972C725.255,145.016 725.203,145.069 725.152,145.128C725.148,145.131 725.146,145.136 725.142,145.138C725.091,145.201 725.044,145.266 724.999,145.337C724.997,145.344 724.991,145.353 724.987,145.358C724.899,145.504 724.825,145.668 724.76,145.838C724.758,145.847 724.752,145.858 724.75,145.867C724.689,146.029 724.641,146.192 724.6,146.353C724.309,149.649 723.114,152.881 721.008,155.641C720.049,156.894 718.922,158.017 717.66,158.986C709.81,165.011 698.523,163.53 692.492,155.676C691.674,154.607 691.002,153.46 690.455,152.273C688.869,151.877 687.158,151.738 685.43,152.082L685.047,152.17C684.852,152.216 684.658,152.261 684.463,152.318L684.494,152.296L684.24,152.377C684.234,152.383 684.226,152.389 684.22,152.396C683.777,152.545 683.331,152.717 682.888,152.942C675.962,157.126 672.93,161.469 671.621,164.746C671.599,164.798 671.572,164.844 671.55,164.896C671.55,164.896 671.471,165.126 671.354,165.511C671.092,166.281 670.906,166.992 670.804,167.596L670.804,167.597C670.638,168.323 670.474,169.168 670.334,170.093C670.326,170.148 670.317,170.202 670.31,170.257C670.309,170.265 670.308,170.275 670.306,170.282C670.264,170.58 670.225,170.884 670.189,171.195C670.188,171.208 670.187,171.218 670.185,171.23C670.178,171.296 670.171,171.364 670.164,171.431C670.014,172.846 669.954,174.384 670.068,175.95L670.068,175.954C670.076,176.059 670.086,176.166 670.096,176.271C670.132,176.68 670.182,177.088 670.244,177.497C670.245,177.499 670.245,177.502 670.245,177.504C670.25,177.534 670.255,177.563 670.259,177.593C670.359,178.217 670.479,178.839 670.65,179.451C670.65,179.451 671.527,181.441 671.963,178.642C672.397,175.854 672.608,159.827 680.731,162.18C681.706,162.461 682.715,162.941 683.665,163.735C686.794,166.36 687.878,171.292 686.894,178.379C686.732,179.545 686.615,180.659 686.537,181.727C686.484,182.545 685.365,203.602 710.973,200.282C710.981,200.28 710.991,200.278 711,200.278C711.186,200.252 711.38,200.221 711.568,200.194C711.746,200.168 711.922,200.143 712.101,200.117C712.226,200.098 712.347,200.082 712.472,200.061C712.661,200.032 712.853,200 713.044,199.969C713.392,199.91 713.747,199.851 714.105,199.787C714.318,199.75 714.529,199.712 714.744,199.671L714.748,199.671C715.15,199.596 715.559,199.516 715.971,199.435L715.973,199.432C716.153,199.397 716.327,199.364 716.506,199.328C717.033,199.217 717.572,199.099 718.121,198.976C718.367,198.921 718.619,198.863 718.871,198.804C719.232,198.72 719.598,198.634 719.965,198.542C720.24,198.477 720.518,198.409 720.797,198.34C721.185,198.24 721.58,198.138 721.977,198.036C722.297,197.95 722.616,197.866 722.944,197.778C723.45,197.642 723.964,197.499 724.487,197.352C724.502,197.348 724.514,197.344 724.528,197.339C724.541,197.336 724.552,197.333 724.565,197.329C724.885,197.236 725.211,197.142 725.538,197.046C725.899,196.942 726.263,196.834 726.634,196.724C726.984,196.618 727.339,196.511 727.697,196.4C728.07,196.284 728.451,196.165 728.828,196.044C728.838,196.043 728.846,196.039 728.853,196.037C728.867,196.034 728.88,196.031 728.896,196.025C729.332,195.883 729.771,195.746 730.214,195.599C730.61,195.471 731.015,195.337 731.421,195.203C731.439,195.195 731.459,195.189 731.48,195.182C731.613,195.138 731.742,195.097 731.875,195.052C732.266,194.921 732.66,194.784 733.055,194.65C733.426,194.521 733.801,194.39 734.18,194.258C734.184,194.256 734.19,194.253 734.196,194.252C734.2,194.251 734.206,194.25 734.21,194.247C734.618,194.102 735.03,193.959 735.446,193.809C735.456,193.805 735.464,193.802 735.473,193.799C735.537,193.776 735.603,193.752 735.667,193.728C736,193.608 736.332,193.486 736.67,193.364C737.074,193.216 737.477,193.071 737.889,192.919L737.891,192.917C738.065,192.848 738.218,192.766 738.361,192.678L738.362,192.677C738.367,192.674 738.371,192.67 738.376,192.667C738.532,192.568 738.669,192.459 738.79,192.342C738.792,192.34 738.794,192.339 738.796,192.337C738.797,192.336 738.797,192.336 738.797,192.335C738.911,192.225 739.011,192.109 739.098,191.987L739.099,191.986C739.111,191.967 739.128,191.95 739.14,191.932C739.141,191.931 739.141,191.929 739.142,191.928C739.318,191.665 739.434,191.383 739.511,191.099C739.536,191.005 739.559,190.911 739.576,190.818C739.577,190.814 739.578,190.81 739.579,190.805L739.579,190.803C739.587,190.758 739.595,190.714 739.6,190.671C739.6,190.668 739.6,190.665 739.601,190.662C739.643,190.364 739.649,190.082 739.637,189.832L739.637,189.811C739.637,189.802 739.637,189.794 739.635,189.789C739.635,189.786 739.635,189.784 739.634,189.781C739.625,189.635 739.613,189.503 739.597,189.389C739.596,189.386 739.596,189.382 739.596,189.379L739.596,189.375C739.594,189.361 739.592,189.351 739.59,189.339C739.588,189.326 739.586,189.318 739.584,189.306C739.578,189.27 739.573,189.236 739.568,189.203C739.564,189.182 739.56,189.154 739.556,189.135C739.554,189.126 739.552,189.116 739.55,189.111L739.55,189.105C739.54,189.064 739.534,189.036 739.529,189.011C739.529,189.007 739.527,189.001 739.527,188.997C739.519,188.974 739.517,188.963 739.517,188.963L739.54,188.98C737.2,180.398 739.481,175.001 741.45,172.23C745.233,166.981 752.2,164.436 759.358,165.677C762.397,166.203 764.641,167.49 766.342,169.281C766.203,163.723 764.838,157.436 761.791,152.001Z" style="fill:rgb(219,46,46);fill-rule:nonzero;"/>
            <path id="path5155" d="M715.695,137.872C719.49,142.821 718.558,149.911 713.613,153.711C708.662,157.508 701.568,156.571 697.775,151.628C693.974,146.674 694.908,139.588 699.861,135.792C704.807,131.993 711.898,132.924 715.695,137.872" style="fill:white;fill-rule:nonzero;"/>
            <path id="path5157" d="M752.107,135.061C751.867,134.747 751.607,134.457 751.337,134.18C744.347,132.055 738.868,133.722 735.923,135.13C733.542,138.279 733.235,142.498 735.009,145.92C735.31,145.917 735.613,145.947 735.913,146.04C736.013,146.066 743.839,148.392 752.626,145.243C752.899,145.145 753.179,145.101 753.456,145.086C754.787,141.808 754.34,137.979 752.107,135.061Z" style="fill:white;fill-rule:nonzero;"/>
            <path id="path5159" d="M669.559,271.151L668.551,275.135C669.867,273.799 671.719,272.895 673.492,272.3L680.404,244.845C677.461,246.914 675.738,248.933 675.134,249.723L670.515,267.366L670.515,267.368L669.517,271.182C669.529,271.172 669.547,271.161 669.559,271.151Z" style="fill:white;fill-rule:nonzero;"/>
            <path id="path5161" d="M711.898,247.735C710.203,246.314 708.265,244.869 706.421,243.563C707.884,241.856 709.468,240.249 711.079,239.039C712.177,238.215 712.397,236.657 711.571,235.56C710.747,234.462 709.188,234.241 708.091,235.064C706.042,236.606 704.066,238.643 702.294,240.748C700.583,239.622 699.38,238.878 699.259,238.804C698.091,238.082 696.56,238.444 695.841,239.613C695.118,240.782 695.482,242.314 696.65,243.034C696.677,243.053 697.709,243.688 699.242,244.692C696.76,248.147 695.123,251.035 694.994,251.265C694.32,252.462 694.746,253.979 695.941,254.652C696.254,254.826 696.586,254.927 696.92,254.96C697.869,255.051 698.83,254.588 699.328,253.704C699.357,253.649 700.963,250.812 703.355,247.489C705.166,248.763 707.072,250.177 708.705,251.547C709.103,251.883 709.578,252.069 710.06,252.115C710.847,252.193 711.66,251.89 712.206,251.241C713.09,250.186 712.951,248.62 711.898,247.735Z" style="fill:rgb(22,22,26);fill-rule:nonzero;"/>
            <path id="path5163" d="M736.51,249.144C736.121,248.595 734.322,246.07 732.016,243.255C732.993,242.561 733.993,241.944 734.963,241.494C736.209,240.917 736.75,239.438 736.174,238.195C735.594,236.947 734.117,236.405 732.873,236.983C731.477,237.629 730.074,238.52 728.736,239.502C726.838,237.483 724.882,235.704 723.22,234.845C722.001,234.214 720.501,234.689 719.87,235.908C719.237,237.126 719.716,238.626 720.933,239.26C721.978,239.801 723.39,241.079 724.904,242.68C722.449,244.933 720.722,246.92 720.588,247.076C719.692,248.115 719.809,249.683 720.848,250.582C721.317,250.987 721.895,251.185 722.469,251.185C723.168,251.185 723.862,250.893 724.352,250.324C724.383,250.289 725.969,248.47 728.178,246.424C729.799,248.402 731.328,250.424 732.446,252.009C732.93,252.696 733.7,253.063 734.481,253.063C734.975,253.063 735.475,252.916 735.911,252.61C737.031,251.817 737.301,250.264 736.51,249.144Z" style="fill:rgb(22,22,26);fill-rule:nonzero;"/>
            <path id="path5165" d="M673.262,279.909C673.262,279.909 676.875,275.977 686.674,275.773C686.674,275.773 690.176,266.144 709.924,262.127C729.672,258.108 739.983,268.242 739.983,268.242C739.983,268.242 728.879,279.241 707.96,282.545C687.039,285.855 673.262,279.909 673.262,279.909Z" style="fill:rgb(219,46,46);fill-rule:nonzero;"/>
        </g>
    </g>
</svg>
